{
  "root": "apps/ui-atoms-e2e",
  "sourceRoot": "apps/ui-atoms-e2e/src",
  "projectType": "application",
  "targets": {
    "e2e": {
      "executor": "@nrwl/cypress:cypress",
      "options": {
        "cypressConfig": "apps/ui-atoms-e2e/cypress.json",
        "devServerTarget": "ui-atoms:storybook"
      },
      "configurations": {
        "ci": {
          "devServerTarget": "ui-atoms:storybook:ci"
        }
      }
    },
    "lint": {
      "executor": "@nrwl/linter:eslint",
      "outputs": ["{options.outputFile}"],
      "options": {
        "lintFilePatterns": ["apps/ui-atoms-e2e/**/*.{js,ts}"]
      }
    }
  },
  "tags": [],
  "implicitDependencies": ["ui-atoms"]
}
