{
  "root": "libs/ui/views/server-error",
  "sourceRoot": "libs/ui/views/server-error/src",
  "projectType": "library",
  "tags": [],
  "targets": {
    "build": {
      "executor": "@nrwl/web:rollup",
      "outputs": ["{options.outputPath}"],
      "options": {
        "outputPath": "dist/libs/ui/views/server-error",
        "tsConfig": "libs/ui/views/server-error/tsconfig.lib.json",
        "project": "libs/ui/views/server-error/package.json",
        "entryFile": "libs/ui/views/server-error/src/index.ts",
        "external": ["react/jsx-runtime", "@emotion/styled/base"],
        "rollupConfig": "@nrwl/react/plugins/bundle-rollup",
        "compiler": "swc",
        "assets": [
          {
            "glob": "libs/ui/views/server-error/README.md",
            "input": ".",
            "output": "."
          }
        ]
      }
    },
    "lint": {
      "executor": "@nrwl/linter:eslint",
      "outputs": ["{options.outputFile}"],
      "options": {
        "lintFilePatterns": ["libs/ui/views/server-error/**/*.{ts,tsx,js,jsx}"]
      }
    },
    "test": {
      "executor": "@nrwl/jest:jest",
      "outputs": ["coverage/libs/ui/views/server-error"],
      "options": {
        "jestConfig": "libs/ui/views/server-error/jest.config.js",
        "passWithNoTests": true
      }
    }
  }
}
